<?xml version="1.0" encoding="utf-8"?>
<!-- Generator: Adobe Illustrator 20.0.0, SVG Export Plug-In . SVG Version: 6.00 Build 0)  -->
<!DOCTYPE svg PUBLIC "-//W3C//DTD SVG 1.1//EN" "http://www.w3.org/Graphics/SVG/1.1/DTD/svg11.dtd" [
	<!ENTITY st0 "fill:#E14329;">
]>
<svg version="1.1" id="Layer_1" xmlns="http://www.w3.org/2000/svg" xmlns:xlink="http://www.w3.org/1999/xlink" x="0px" y="0px"
	 viewBox="0 0 76 76" style="enable-background:new 0 0 76 76;" xml:space="preserve">
<g id="Layer_2">
</g>
<g id="Layer_1_1_" xmlns:sketch="http://www.bohemiancoding.com/sketch/ns">
	<g>
		<path style="&st0;" d="M14.267,7.32l-4.896,5.277l-1.702-1.533c-0.409-0.369-1.043-0.338-1.412,0.074
			c-0.369,0.41-0.337,1.042,0.074,1.412l2.434,2.192c0.064,0.058,0.139,0.091,0.212,0.13c0.035,0.018,0.065,0.048,0.101,0.062
			C9.192,14.978,9.313,15,9.434,15c0.135,0,0.27-0.028,0.396-0.082c0.044-0.019,0.077-0.058,0.118-0.084
			c0.076-0.047,0.155-0.086,0.219-0.154l5.566-6c0.375-0.404,0.352-1.037-0.054-1.413C15.274,6.89,14.643,6.914,14.267,7.32z"/>
		<path style="&st0;" d="M31,9h44c0.553,0,1-0.447,1-1s-0.447-1-1-1H31c-0.553,0-1,0.447-1,1S30.447,9,31,9z"/>
		<path style="&st0;" d="M31,15h24c0.553,0,1-0.447,1-1s-0.447-1-1-1H31c-0.553,0-1,0.447-1,1S30.447,15,31,15z"/>
		<path style="&st0;" d="M11,0C4.935,0,0,4.935,0,11s4.935,11,11,11s11-4.935,11-11S17.065,0,11,0z M11,20c-4.963,0-9-4.037-9-9
			s4.037-9,9-9s9,4.037,9,9S15.963,20,11,20z"/>
		<path style="&st0;" d="M14.267,34.32l-4.896,5.277l-1.702-1.533c-0.409-0.368-1.043-0.338-1.412,0.074
			c-0.369,0.41-0.337,1.042,0.074,1.412l2.434,2.192c0.064,0.058,0.139,0.091,0.212,0.13c0.035,0.018,0.065,0.048,0.101,0.062
			C9.192,41.978,9.313,42,9.434,42c0.135,0,0.27-0.028,0.396-0.082c0.044-0.019,0.077-0.058,0.118-0.084
			c0.076-0.047,0.155-0.086,0.219-0.154l5.566-6c0.375-0.404,0.352-1.037-0.054-1.413C15.274,33.89,14.643,33.914,14.267,34.32z"/>
		<path style="&st0;" d="M75,34H31c-0.553,0-1,0.447-1,1s0.447,1,1,1h44c0.553,0,1-0.447,1-1S75.553,34,75,34z"/>
		<path style="&st0;" d="M31,42h24c0.553,0,1-0.447,1-1s-0.447-1-1-1H31c-0.553,0-1,0.447-1,1S30.447,42,31,42z"/>
		<path style="&st0;" d="M11,27C4.935,27,0,31.935,0,38s4.935,11,11,11s11-4.935,11-11S17.065,27,11,27z M11,47
			c-4.963,0-9-4.037-9-9s4.037-9,9-9s9,4.037,9,9S15.963,47,11,47z"/>
		<path style="&st0;" d="M14.267,61.32l-4.896,5.277l-1.702-1.533c-0.409-0.368-1.043-0.338-1.412,0.074
			c-0.369,0.41-0.337,1.042,0.074,1.412l2.434,2.192c0.064,0.058,0.139,0.091,0.212,0.13c0.035,0.018,0.065,0.048,0.101,0.062
			C9.192,68.978,9.313,69,9.434,69c0.135,0,0.27-0.028,0.396-0.082c0.044-0.019,0.077-0.058,0.118-0.084
			c0.076-0.047,0.155-0.086,0.219-0.154l5.566-6c0.375-0.404,0.352-1.037-0.054-1.413C15.274,60.89,14.643,60.914,14.267,61.32z"/>
		<path style="&st0;" d="M11,54C4.935,54,0,58.935,0,65s4.935,11,11,11s11-4.935,11-11S17.065,54,11,54z M11,74
			c-4.963,0-9-4.037-9-9s4.037-9,9-9s9,4.037,9,9S15.963,74,11,74z"/>
		<path style="&st0;" d="M75,61H31c-0.553,0-1,0.447-1,1s0.447,1,1,1h44c0.553,0,1-0.447,1-1S75.553,61,75,61z"/>
		<path style="&st0;" d="M55,67H31c-0.553,0-1,0.447-1,1s0.447,1,1,1h24c0.553,0,1-0.447,1-1S55.553,67,55,67z"/>
	</g>
</g>
<g id="Layer_3">
</g>
</svg>
