<?xml version="1.0" encoding="utf-8"?>
<!-- Generator: Adobe Illustrator 20.0.0, SVG Export Plug-In . SVG Version: 6.00 Build 0)  -->
<!DOCTYPE svg PUBLIC "-//W3C//DTD SVG 1.1//EN" "http://www.w3.org/Graphics/SVG/1.1/DTD/svg11.dtd" [
	<!ENTITY st0 "fill:#A1A1A2;">
]>
<svg version="1.1" id="Layer_1" xmlns="http://www.w3.org/2000/svg" xmlns:xlink="http://www.w3.org/1999/xlink" x="0px" y="0px"
	 viewBox="0 0 46 46" style="enable-background:new 0 0 46 46;" xml:space="preserve">
<g id="Layer_2">
</g>
<g id="Layer_1_1_" xmlns:sketch="http://www.bohemiancoding.com/sketch/ns">
	<g>
		<path style="&st0;" d="M8,5.167c0-2.206-1.794-4-4-4s-4,1.794-4,4c0,1.856,1.276,3.406,2.993,3.856v4.26
			C1.276,13.732,0,15.282,0,17.139s1.276,3.406,2.993,3.856v4.26C1.276,25.704,0,27.254,0,29.11s1.276,3.406,2.993,3.856v4.26
			C1.276,37.676,0,39.226,0,41.082c0,2.206,1.794,4,4,4s4-1.794,4-4c0-1.861-1.283-3.416-3.007-3.86v-4.251
			C6.717,32.526,8,30.972,8,29.11s-1.283-3.416-3.007-3.86v-4.251C6.717,20.554,8,19,8,17.139s-1.283-3.416-3.007-3.86V9.027
			C6.717,8.583,8,7.028,8,5.167z M2,5.167c0-1.103,0.897-2,2-2s2,0.897,2,2c0,1.088-0.874,1.972-1.956,1.996
			c-0.018-0.001-0.033-0.01-0.051-0.01c-0.016,0-0.03,0.008-0.046,0.009C2.869,7.133,2,6.251,2,5.167z M6,41.082
			c0,1.103-0.897,2-2,2s-2-0.897-2-2s0.897-2,2-2S6,39.979,6,41.082z M6,29.11c0,1.088-0.874,1.972-1.956,1.996
			c-0.018-0.001-0.033-0.01-0.051-0.01c-0.016,0-0.03,0.008-0.046,0.009C2.869,31.076,2,30.195,2,29.11c0-1.103,0.897-2,2-2
			S6,28.008,6,29.11z M6,17.139c0,1.088-0.874,1.972-1.956,1.996c-0.018-0.001-0.033-0.01-0.051-0.01
			c-0.016,0-0.03,0.008-0.046,0.009C2.869,19.104,2,18.223,2,17.139c0-1.103,0.897-2,2-2S6,16.036,6,17.139z"/>
		<path style="&st0;" d="M13,4h32c0.553,0,1-0.447,1-1s-0.447-1-1-1H13c-0.553,0-1,0.447-1,1S12.447,4,13,4z"/>
		<path style="&st0;" d="M12.972,7.955h20c0.553,0,1-0.447,1-1s-0.447-1-1-1h-20c-0.553,0-1,0.447-1,1S12.419,7.955,12.972,7.955z"
			/>
		<path style="&st0;" d="M45,14H13c-0.553,0-1,0.447-1,1s0.447,1,1,1h32c0.553,0,1-0.447,1-1S45.553,14,45,14z"/>
		<path style="&st0;" d="M12.972,19.927h20c0.553,0,1-0.447,1-1s-0.447-1-1-1h-20c-0.553,0-1,0.447-1,1S12.419,19.927,12.972,19.927
			z"/>
		<path style="&st0;" d="M44.972,26h-32c-0.553,0-1,0.447-1,1s0.447,1,1,1h32c0.553,0,1-0.447,1-1S45.524,26,44.972,26z"/>
		<path style="&st0;" d="M12.972,31.898h20c0.553,0,1-0.447,1-1s-0.447-1-1-1h-20c-0.553,0-1,0.447-1,1S12.419,31.898,12.972,31.898
			z"/>
		<path style="&st0;" d="M44.972,38h-32c-0.553,0-1,0.447-1,1s0.447,1,1,1h32c0.553,0,1-0.447,1-1S45.524,38,44.972,38z"/>
		<path style="&st0;" d="M32.972,42h-20c-0.553,0-1,0.447-1,1s0.447,1,1,1h20c0.553,0,1-0.447,1-1S33.524,42,32.972,42z"/>
	</g>
</g>
<g id="Layer_3">
</g>
</svg>
